64
65
0
81
89
32
51
96
47
18
0
16
71
95
88
9
28
55
87
46
30
64
17
93
83
97
88
43
50
67
8
38
88
20
40
68
90
66
39
47
6
68
22
17
39
79
10
69
14
79
90
55
66
38
6
18
100
24
67
75
19
53
49
76
59
1
7
87
18
53
57
69
21
55
38
76
74
55
7
85
16
33
86
57
73
7
29
38
65
100
79
16
21
28
66
26
11
56
98
12
